{
  "items": [
    {
      "id": 1290,
      "name": "Ironman helm",
      "description": "For just a rather very independent scaper.",
      "command": "",
      "isFemaleOnly": 0,
      "isMembersOnly": 0,
      "isStackable": 0,
      "isUntradable": 1,
      "isWearable": 1,
      "appearanceID": 318,
      "wearableID": 33,
      "wearSlot": 0,
      "requiredLevel": 1,
      "requiredSkillID": 1,
      "armourBonus": 6,
      "weaponAimBonus": 0,
      "weaponPowerBonus": 0,
      "magicBonus": 0,
      "prayerBonus": 0,
      "basePrice": 154,
      "isNoteable": 1
    },
    {
      "id": 1291,
      "name": "Ironman platebody",
      "description": "Take it off and what are you?",
      "command": "",
      "isFemaleOnly": 0,
      "isMembersOnly": 0,
      "isStackable": 0,
      "isUntradable": 1,
      "isWearable": 1,
      "appearanceID": 319,
      "wearableID": 322,
      "wearSlot": 1,
      "requiredLevel": 1,
      "requiredSkillID": 1,
      "armourBonus": 20,
      "weaponAimBonus": 0,
      "weaponPowerBonus": 0,
      "magicBonus": 0,
      "prayerBonus": 0,
      "basePrice": 560,
      "isNoteable": 1
    },
    {
      "id": 1292,
      "name": "Ironman platelegs",
      "description": "Take it off and what are you?",
      "command": "",
      "isFemaleOnly": 0,
      "isMembersOnly": 0,
      "isStackable": 0,
      "isUntradable": 1,
      "isWearable": 1,
      "appearanceID": 320,
      "wearableID": 644,
      "wearSlot": 2,
      "requiredLevel": 1,
      "requiredSkillID": 1,
      "armourBonus": 10,
      "weaponAimBonus": 0,
      "weaponPowerBonus": 0,
      "magicBonus": 0,
      "prayerBonus": 0,
      "basePrice": 280,
      "isNoteable": 1
    },
    {
      "id": 1293,
      "name": "Ultimate ironman helm",
      "description": "For Just A Rather Very Independent Scaper.",
      "command": "",
      "isFemaleOnly": 0,
      "isMembersOnly": 0,
      "isStackable": 0,
      "isUntradable": 1,
      "isWearable": 1,
      "appearanceID": 321,
      "wearableID": 33,
      "wearSlot": 0,
      "requiredLevel": 1,
      "requiredSkillID": 1,
      "armourBonus": 6,
      "weaponAimBonus": 0,
      "weaponPowerBonus": 0,
      "magicBonus": 0,
      "prayerBonus": 0,
      "basePrice": 154,
      "isNoteable": 1
    },
    {
      "id": 1294,
      "name": "Ultimate ironman platebody",
      "description": "Take it off and what are you?",
      "command": "",
      "isFemaleOnly": 0,
      "isMembersOnly": 0,
      "isStackable": 0,
      "isUntradable": 1,
      "isWearable": 1,
      "appearanceID": 322,
      "wearableID": 322,
      "wearSlot": 1,
      "requiredLevel": 1,
      "requiredSkillID": 1,
      "armourBonus": 20,
      "weaponAimBonus": 0,
      "weaponPowerBonus": 0,
      "magicBonus": 0,
      "prayerBonus": 0,
      "basePrice": 560,
      "isNoteable": 1
    },
    {
      "id": 1295,
      "name": "Ultimate ironman platelegs",
      "description": "Take it off and what are you?",
      "command": "",
      "isFemaleOnly": 0,
      "isMembersOnly": 0,
      "isStackable": 0,
      "isUntradable": 1,
      "isWearable": 1,
      "appearanceID": 323,
      "wearableID": 644,
      "wearSlot": 2,
      "requiredLevel": 1,
      "requiredSkillID": 1,
      "armourBonus": 10,
      "weaponAimBonus": 0,
      "weaponPowerBonus": 0,
      "magicBonus": 0,
      "prayerBonus": 0,
      "basePrice": 280,
      "isNoteable": 1
    },
    {
      "id": 1296,
      "name": "Hardcore ironman helm",
      "description": "For those who stand alone.",
      "command": "",
      "isFemaleOnly": 0,
      "isMembersOnly": 0,
      "isStackable": 0,
      "isUntradable": 1,
      "isWearable": 1,
      "appearanceID": 324,
      "wearableID": 33,
      "wearSlot": 0,
      "requiredLevel": 1,
      "requiredSkillID": 1,
      "armourBonus": 6,
      "weaponAimBonus": 0,
      "weaponPowerBonus": 0,
      "magicBonus": 0,
      "prayerBonus": 0,
      "basePrice": 154,
      "isNoteable": 1
    },
    {
      "id": 1297,
      "name": "Hardcore ironman platebody",
      "description": "Take it off and what are you?",
      "command": "",
      "isFemaleOnly": 0,
      "isMembersOnly": 0,
      "isStackable": 0,
      "isUntradable": 1,
      "isWearable": 1,
      "appearanceID": 325,
      "wearableID": 322,
      "wearSlot": 1,
      "requiredLevel": 1,
      "requiredSkillID": 1,
      "armourBonus": 20,
      "weaponAimBonus": 0,
      "weaponPowerBonus": 0,
      "magicBonus": 0,
      "prayerBonus": 0,
      "basePrice": 560,
      "isNoteable": 1
    },
    {
      "id": 1298,
      "name": "Hardcore ironman platelegs",
      "description": "Take it off and what are you?",
      "command": "",
      "isFemaleOnly": 0,
      "isMembersOnly": 0,
      "isStackable": 0,
      "isUntradable": 1,
      "isWearable": 1,
      "appearanceID": 326,
      "wearableID": 644,
      "wearSlot": 2,
      "requiredLevel": 1,
      "requiredSkillID": 1,
      "armourBonus": 10,
      "weaponAimBonus": 0,
      "weaponPowerBonus": 0,
      "magicBonus": 0,
      "prayerBonus": 0,
      "basePrice": 280,
      "isNoteable": 1
    },
    {
      "id": 1299,
      "name": "Rune stone",
      "description": "An uncharged runestone",
      "command": "",
      "isFemaleOnly": 0,
      "isMembersOnly": 0,
      "isStackable": 0,
      "isUntradable": 0,
      "isWearable": 0,
      "appearanceID": 0,
      "wearableID": 0,
      "wearSlot": 0,
      "requiredLevel": 0,
      "requiredSkillID": 0,
      "armourBonus": 0,
      "weaponAimBonus": 0,
      "weaponPowerBonus": 0,
      "magicBonus": 0,
      "prayerBonus": 0,
      "basePrice": 0,
      "isNoteable": 1
    },
    {
      "id": 1300,
      "name": "Air talisman",
      "description": "A mysterious power emanates from this talisman...",
      "command": "Locate",
      "isFemaleOnly": 0,
      "isMembersOnly": 0,
      "isStackable": 0,
      "isUntradable": 0,
      "isWearable": 0,
      "appearanceID": 0,
      "wearableID": 0,
      "wearSlot": 0,
      "requiredLevel": 0,
      "requiredSkillID": 0,
      "armourBonus": 0,
      "weaponAimBonus": 0,
      "weaponPowerBonus": 0,
      "magicBonus": 0,
      "prayerBonus": 0,
      "basePrice": 0,
      "isNoteable": 1
    },
    {
      "id": 1301,
      "name": "Mind talisman",
      "description": "A mysterious power emanates from this talisman...",
      "command": "Locate",
      "isFemaleOnly": 0,
      "isMembersOnly": 0,
      "isStackable": 0,
      "isUntradable": 0,
      "isWearable": 0,
      "appearanceID": 0,
      "wearableID": 0,
      "wearSlot": 0,
      "requiredLevel": 0,
      "requiredSkillID": 0,
      "armourBonus": 0,
      "weaponAimBonus": 0,
      "weaponPowerBonus": 0,
      "magicBonus": 0,
      "prayerBonus": 0,
      "basePrice": 0,
      "isNoteable": 1
    },
    {
      "id": 1302,
      "name": "Water talisman",
      "description": "A mysterious power emanates from this talisman...",
      "command": "Locate",
      "isFemaleOnly": 0,
      "isMembersOnly": 0,
      "isStackable": 0,
      "isUntradable": 0,
      "isWearable": 0,
      "appearanceID": 0,
      "wearableID": 0,
      "wearSlot": 0,
      "requiredLevel": 0,
      "requiredSkillID": 0,
      "armourBonus": 0,
      "weaponAimBonus": 0,
      "weaponPowerBonus": 0,
      "magicBonus": 0,
      "prayerBonus": 0,
      "basePrice": 0,
      "isNoteable": 1
    },
    {
      "id": 1303,
      "name": "Earth talisman",
      "description": "A mysterious power emanates from this talisman...",
      "command": "Locate",
      "isFemaleOnly": 0,
      "isMembersOnly": 0,
      "isStackable": 0,
      "isUntradable": 0,
      "isWearable": 0,
      "appearanceID": 0,
      "wearableID": 0,
      "wearSlot": 0,
      "requiredLevel": 0,
      "requiredSkillID": 0,
      "armourBonus": 0,
      "weaponAimBonus": 0,
      "weaponPowerBonus": 0,
      "magicBonus": 0,
      "prayerBonus": 0,
      "basePrice": 0,
      "isNoteable": 1
    },
    {
      "id": 1304,
      "name": "Fire talisman",
      "description": "A mysterious power emanates from this talisman...",
      "command": "Locate",
      "isFemaleOnly": 0,
      "isMembersOnly": 0,
      "isStackable": 0,
      "isUntradable": 0,
      "isWearable": 0,
      "appearanceID": 0,
      "wearableID": 0,
      "wearSlot": 0,
      "requiredLevel": 0,
      "requiredSkillID": 0,
      "armourBonus": 0,
      "weaponAimBonus": 0,
      "weaponPowerBonus": 0,
      "magicBonus": 0,
      "prayerBonus": 0,
      "basePrice": 0,
      "isNoteable": 1
    },
    {
      "id": 1305,
      "name": "Body talisman",
      "description": "A mysterious power emanates from this talisman...",
      "command": "Locate",
      "isFemaleOnly": 0,
      "isMembersOnly": 0,
      "isStackable": 0,
      "isUntradable": 0,
      "isWearable": 0,
      "appearanceID": 0,
      "wearableID": 0,
      "wearSlot": 0,
      "requiredLevel": 0,
      "requiredSkillID": 0,
      "armourBonus": 0,
      "weaponAimBonus": 0,
      "weaponPowerBonus": 0,
      "magicBonus": 0,
      "prayerBonus": 0,
      "basePrice": 0,
      "isNoteable": 1
    },
    {
      "id": 1306,
      "name": "Cosmic talisman",
      "description": "A mysterious power emanates from this talisman...",
      "command": "Locate",
      "isFemaleOnly": 0,
      "isMembersOnly": 0,
      "isStackable": 0,
      "isUntradable": 0,
      "isWearable": 0,
      "appearanceID": 0,
      "wearableID": 0,
      "wearSlot": 0,
      "requiredLevel": 0,
      "requiredSkillID": 0,
      "armourBonus": 0,
      "weaponAimBonus": 0,
      "weaponPowerBonus": 0,
      "magicBonus": 0,
      "prayerBonus": 0,
      "basePrice": 0,
      "isNoteable": 1
    },
    {
      "id": 1307,
      "name": "Chaos talisman",
      "description": "A mysterious power emanates from this talisman...",
      "command": "Locate",
      "isFemaleOnly": 0,
      "isMembersOnly": 0,
      "isStackable": 0,
      "isUntradable": 0,
      "isWearable": 0,
      "appearanceID": 0,
      "wearableID": 0,
      "wearSlot": 0,
      "requiredLevel": 0,
      "requiredSkillID": 0,
      "armourBonus": 0,
      "weaponAimBonus": 0,
      "weaponPowerBonus": 0,
      "magicBonus": 0,
      "prayerBonus": 0,
      "basePrice": 0,
      "isNoteable": 1
    },
    {
      "id": 1308,
      "name": "Nature talisman",
      "description": "A mysterious power emanates from this talisman...",
      "command": "Locate",
      "isFemaleOnly": 0,
      "isMembersOnly": 0,
      "isStackable": 0,
      "isUntradable": 0,
      "isWearable": 0,
      "appearanceID": 0,
      "wearableID": 0,
      "wearSlot": 0,
      "requiredLevel": 0,
      "requiredSkillID": 0,
      "armourBonus": 0,
      "weaponAimBonus": 0,
      "weaponPowerBonus": 0,
      "magicBonus": 0,
      "prayerBonus": 0,
      "basePrice": 0,
      "isNoteable": 1
    },
    {
      "id": 1309,
      "name": "Law talisman",
      "description": "A mysterious power emanates from this talisman...",
      "command": "Locate",
      "isFemaleOnly": 0,
      "isMembersOnly": 0,
      "isStackable": 0,
      "isUntradable": 0,
      "isWearable": 0,
      "appearanceID": 0,
      "wearableID": 0,
      "wearSlot": 0,
      "requiredLevel": 0,
      "requiredSkillID": 0,
      "armourBonus": 0,
      "weaponAimBonus": 0,
      "weaponPowerBonus": 0,
      "magicBonus": 0,
      "prayerBonus": 0,
      "basePrice": 0,
      "isNoteable": 1
    },
    {
      "id": 1310,
      "name": "Death talisman",
      "description": "A mysterious power emanates from this talisman...",
      "command": "Locate",
      "isFemaleOnly": 0,
      "isMembersOnly": 0,
      "isStackable": 0,
      "isUntradable": 0,
      "isWearable": 0,
      "appearanceID": 0,
      "wearableID": 0,
      "wearSlot": 0,
      "requiredLevel": 0,
      "requiredSkillID": 0,
      "armourBonus": 0,
      "weaponAimBonus": 0,
      "weaponPowerBonus": 0,
      "magicBonus": 0,
      "prayerBonus": 0,
      "basePrice": 0,
      "isNoteable": 1
    },
    {
      "id": 1311,
      "name": "Blood talisman",
      "description": "A mysterious power emanates from this talisman...",
      "command": "Locate",
      "isFemaleOnly": 0,
      "isMembersOnly": 0,
      "isStackable": 0,
      "isUntradable": 0,
      "isWearable": 0,
      "appearanceID": 0,
      "wearableID": 0,
      "wearSlot": 0,
      "requiredLevel": 0,
      "requiredSkillID": 0,
      "armourBonus": 0,
      "weaponAimBonus": 0,
      "weaponPowerBonus": 0,
      "magicBonus": 0,
      "prayerBonus": 0,
      "basePrice": 0,
      "isNoteable": 1
    },
    {
      "id": 1312,
      "name": "Research package",
      "description": "This contains some vital research results. bank for the equivalent item.",
      "command": "",
      "isFemaleOnly": 0,
      "isMembersOnly": 1,
      "isStackable": 0,
      "isUntradable": 1,
      "isWearable": 0,
      "appearanceID": 0,
      "wearableID": 0,
      "wearSlot": 0,
      "requiredLevel": 0,
      "requiredSkillID": 0,
      "armourBonus": 0,
      "weaponAimBonus": 0,
      "weaponPowerBonus": 0,
      "magicBonus": 0,
      "prayerBonus": 0,
      "basePrice": 0,
      "isNoteable": 0
    },
    {
      "id": 1313,
      "name": "Research notes",
      "description": "These make no sense at all.",
      "command": "",
      "isFemaleOnly": 0,
      "isMembersOnly": 1,
      "isStackable": 0,
      "isUntradable": 1,
      "isWearable": 0,
      "appearanceID": 0,
      "wearableID": 0,
      "wearSlot": 0,
      "requiredLevel": 0,
      "requiredSkillID": 0,
      "armourBonus": 0,
      "weaponAimBonus": 0,
      "weaponPowerBonus": 0,
      "magicBonus": 0,
      "prayerBonus": 0,
      "basePrice": 0,
      "isNoteable": 0
    },
    {
      "id": 1314,
      "name": "Ring of recoil",
      "description": "An uncharged ring.",
      "command": "Check,Break",
      "isFemaleOnly": 0,
      "isMembersOnly": 1,
      "isStackable": 0,
      "isUntradable": 0,
      "isWearable": 1,
      "appearanceID": 0,
      "wearableID": 1200,
      "wearSlot": 13,
      "requiredLevel": 0,
      "requiredSkillID": 0,
      "armourBonus": 0,
      "weaponAimBonus": 0,
      "weaponPowerBonus": 0,
      "magicBonus": 0,
      "prayerBonus": 0,
      "basePrice": 900,
      "isNoteable": 1
    },
    {
      "id": 1315,
      "name": "Ring of splendor",
      "description": "An uncharged ring.",
      "command": "",
      "isFemaleOnly": 0,
      "isMembersOnly": 1,
      "isStackable": 0,
      "isUntradable": 0,
      "isWearable": 1,
      "appearanceID": 0,
      "wearableID": 1200,
      "wearSlot": 13,
      "requiredLevel": 0,
      "requiredSkillID": 0,
      "armourBonus": 0,
      "weaponAimBonus": 0,
      "weaponPowerBonus": 0,
      "magicBonus": 0,
      "prayerBonus": 0,
      "basePrice": 1275,
      "isNoteable": 1
    },
    {
      "id": 1316,
      "name": "Ring of forging",
      "description": "An uncharged ring.",
      "command": "Check,Break",
      "isFemaleOnly": 0,
      "isMembersOnly": 1,
      "isStackable": 0,
      "isUntradable": 0,
      "isWearable": 1,
      "appearanceID": 0,
      "wearableID": 1200,
      "wearSlot": 13,
      "requiredLevel": 0,
      "requiredSkillID": 0,
      "armourBonus": 0,
      "weaponAimBonus": 0,
      "weaponPowerBonus": 0,
      "magicBonus": 0,
      "prayerBonus": 0,
      "basePrice": 2025,
      "isNoteable": 1
    },
    {
      "id": 1317,
      "name": "Ring of life",
      "description": "An uncharged ring.",
      "command": "",
      "isFemaleOnly": 0,
      "isMembersOnly": 1,
      "isStackable": 0,
      "isUntradable": 0,
      "isWearable": 1,
      "appearanceID": 0,
      "wearableID": 1200,
      "wearSlot": 13,
      "requiredLevel": 0,
      "requiredSkillID": 0,
      "armourBonus": 0,
      "weaponAimBonus": 0,
      "weaponPowerBonus": 0,
      "magicBonus": 0,
      "prayerBonus": 0,
      "basePrice": 3525,
      "isNoteable": 1
    },
    {
      "id": 1318,
      "name": "Ring of wealth",
      "description": "An uncharged ring.",
      "command": "",
      "isFemaleOnly": 0,
      "isMembersOnly": 1,
      "isStackable": 0,
      "isUntradable": 0,
      "isWearable": 1,
      "appearanceID": 0,
      "wearableID": 1200,
      "wearSlot": 13,
      "requiredLevel": 0,
      "requiredSkillID": 0,
      "armourBonus": 0,
      "weaponAimBonus": 0,
      "weaponPowerBonus": 0,
      "magicBonus": 0,
      "prayerBonus": 0,
      "basePrice": 17625,
      "isNoteable": 1
    },
    {
      "id": 1319,
      "name": "Ring of avarice",
      "description": "An uncharged ring.",
      "command": "",
      "isFemaleOnly": 0,
      "isMembersOnly": 1,
      "isStackable": 0,
      "isUntradable": 0,
      "isWearable": 1,
      "appearanceID": 0,
      "wearableID": 1200,
      "wearSlot": 13,
      "requiredLevel": 0,
      "requiredSkillID": 0,
      "armourBonus": 0,
      "weaponAimBonus": 0,
      "weaponPowerBonus": 0,
      "magicBonus": 0,
      "prayerBonus": 0,
      "basePrice": 17625,
      "isNoteable": 1
    },
    {
      "id": 1320,
      "name": "Dwarven ring",
      "description": "An uncharged ring.",
      "command": "Check,Break",
      "isFemaleOnly": 0,
      "isMembersOnly": 1,
      "isStackable": 0,
      "isUntradable": 0,
      "isWearable": 1,
      "appearanceID": 0,
      "wearableID": 1200,
      "wearSlot": 13,
      "requiredLevel": 0,
      "requiredSkillID": 0,
      "armourBonus": 0,
      "weaponAimBonus": 0,
      "weaponPowerBonus": 0,
      "magicBonus": 0,
      "prayerBonus": 0,
      "basePrice": 400,
      "isNoteable": 1
    },
    {
      "id": 1321,
      "name": "Opal ring",
      "description": "A valuable ring",
      "command": "",
      "isFemaleOnly": 0,
      "isMembersOnly": 0,
      "isStackable": 0,
      "isUntradable": 0,
      "isWearable": 0,
      "appearanceID": 0,
      "wearableID": 0,
      "wearSlot": -1,
      "requiredLevel": 0,
      "requiredSkillID": -1,
      "armourBonus": 0,
      "weaponAimBonus": 0,
      "weaponPowerBonus": 0,
      "magicBonus": 0,
      "prayerBonus": 0,
      "basePrice": 1050,
      "isNoteable": 1
    },
    {
      "id": 1322,
      "name": "White wolf mask",
      "description": "Awooo",
      "command": "",
      "isFemaleOnly": 0,
      "isMembersOnly": 0,
      "isStackable": 0,
      "isUntradable": 0,
      "isWearable": 1,
      "appearanceID": 291,
      "wearableID": 32,
      "wearSlot": 5,
      "requiredLevel": 0,
      "requiredSkillID": 0,
      "armourBonus": 0,
      "weaponAimBonus": 0,
      "weaponPowerBonus": 0,
      "magicBonus": 0,
      "prayerBonus": 0,
      "basePrice": 0,
      "isNoteable": 1
    },
    {
      "id": 1323,
      "name": "Blood wolf mask",
      "description": "Awooo",
      "command": "",
      "isFemaleOnly": 0,
      "isMembersOnly": 0,
      "isStackable": 0,
      "isUntradable": 0,
      "isWearable": 1,
      "appearanceID": 292,
      "wearableID": 32,
      "wearSlot": 5,
      "requiredLevel": 0,
      "requiredSkillID": 0,
      "armourBonus": 0,
      "weaponAimBonus": 0,
      "weaponPowerBonus": 0,
      "magicBonus": 0,
      "prayerBonus": 0,
      "basePrice": 0,
      "isNoteable": 1
    },
    {
      "id": 1324,
      "name": "Black wolf mask",
      "description": "Awooo",
      "command": "",
      "isFemaleOnly": 0,
      "isMembersOnly": 0,
      "isStackable": 0,
      "isUntradable": 0,
      "isWearable": 1,
      "appearanceID": 293,
      "wearableID": 32,
      "wearSlot": 5,
      "requiredLevel": 0,
      "requiredSkillID": 0,
      "armourBonus": 0,
      "weaponAimBonus": 0,
      "weaponPowerBonus": 0,
      "magicBonus": 0,
      "prayerBonus": 0,
      "basePrice": 0,
      "isNoteable": 1
    },
    {
      "id": 1325,
      "name": "Pink wolf mask",
      "description": "Awooo",
      "command": "",
      "isFemaleOnly": 0,
      "isMembersOnly": 0,
      "isStackable": 0,
      "isUntradable": 0,
      "isWearable": 1,
      "appearanceID": 294,
      "wearableID": 32,
      "wearSlot": 5,
      "requiredLevel": 0,
      "requiredSkillID": 0,
      "armourBonus": 0,
      "weaponAimBonus": 0,
      "weaponPowerBonus": 0,
      "magicBonus": 0,
      "prayerBonus": 0,
      "basePrice": 0,
      "isNoteable": 1
    },
    {
      "id": 1326,
      "name": "White unicorn mask",
      "description": "Im so fluffy Im gonne die!!",
      "command": "",
      "isFemaleOnly": 0,
      "isMembersOnly": 0,
      "isStackable": 0,
      "isUntradable": 0,
      "isWearable": 1,
      "appearanceID": 287,
      "wearableID": 32,
      "wearSlot": 5,
      "requiredLevel": 0,
      "requiredSkillID": 0,
      "armourBonus": 0,
      "weaponAimBonus": 0,
      "weaponPowerBonus": 0,
      "magicBonus": 0,
      "prayerBonus": 0,
      "basePrice": 0,
      "isNoteable": 1
    },
    {
      "id": 1327,
      "name": "Blood unicorn mask",
      "description": "Im so fluffy Im gonne die!!",
      "command": "",
      "isFemaleOnly": 0,
      "isMembersOnly": 0,
      "isStackable": 0,
      "isUntradable": 0,
      "isWearable": 1,
      "appearanceID": 288,
      "wearableID": 32,
      "wearSlot": 5,
      "requiredLevel": 0,
      "requiredSkillID": 0,
      "armourBonus": 0,
      "weaponAimBonus": 0,
      "weaponPowerBonus": 0,
      "magicBonus": 0,
      "prayerBonus": 0,
      "basePrice": 0,
      "isNoteable": 1
    },
    {
      "id": 1328,
      "name": "Black unicorn mask",
      "description": "Im so fluffy Im gonne die!!",
      "command": "",
      "isFemaleOnly": 0,
      "isMembersOnly": 0,
      "isStackable": 0,
      "isUntradable": 0,
      "isWearable": 1,
      "appearanceID": 289,
      "wearableID": 32,
      "wearSlot": 5,
      "requiredLevel": 0,
      "requiredSkillID": 0,
      "armourBonus": 0,
      "weaponAimBonus": 0,
      "weaponPowerBonus": 0,
      "magicBonus": 0,
      "prayerBonus": 0,
      "basePrice": 0,
      "isNoteable": 1
    },
    {
      "id": 1329,
      "name": "Pink unicorn mask",
      "description": "Im so fluffy Im gonne die!!",
      "command": "",
      "isFemaleOnly": 0,
      "isMembersOnly": 0,
      "isStackable": 0,
      "isUntradable": 0,
      "isWearable": 1,
      "appearanceID": 290,
      "wearableID": 32,
      "wearSlot": 5,
      "requiredLevel": 0,
      "requiredSkillID": 0,
      "armourBonus": 0,
      "weaponAimBonus": 0,
      "weaponPowerBonus": 0,
      "magicBonus": 0,
      "prayerBonus": 0,
      "basePrice": 0,
      "isNoteable": 1
    },
    {
      "id": 1330,
      "name": "Trick or treat cracker",
      "description": "Use on another player to pull it",
      "command": "",
      "isFemaleOnly": 0,
      "isMembersOnly": 0,
      "isStackable": 0,
      "isUntradable": 0,
      "isWearable": 0,
      "appearanceID": 0,
      "wearableID": 0,
      "wearSlot": -1,
      "requiredLevel": 0,
      "requiredSkillID": -1,
      "armourBonus": 0,
      "weaponAimBonus": 0,
      "weaponPowerBonus": 0,
      "magicBonus": 0,
      "prayerBonus": 0,
      "basePrice": 1,
      "isNoteable": 1
    },
    {
      "id": 1331,
      "name": "Fox mask",
      "description": "Struttin like a fox",
      "command": "",
      "isFemaleOnly": 0,
      "isMembersOnly": 0,
      "isStackable": 0,
      "isUntradable": 0,
      "isWearable": 1,
      "appearanceID": 387,
      "wearableID": 32,
      "wearSlot": 5,
      "requiredLevel": 0,
      "requiredSkillID": 0,
      "armourBonus": 0,
      "weaponAimBonus": 0,
      "weaponPowerBonus": 0,
      "magicBonus": 0,
      "prayerBonus": 0,
      "basePrice": 0,
      "isNoteable": 1
    },
    {
      "id": 1332,
      "name": "Christmas cape",
      "description": "A cape worn on the holidays",
      "command": "",
      "isFemaleOnly": 0,
      "isMembersOnly": 0,
      "isStackable": 0,
      "isUntradable": 0,
      "isWearable": 1,
      "appearanceID": 395,
      "wearableID": 2048,
      "wearSlot": 11,
      "requiredLevel": 1,
      "requiredSkillID": 1,
      "armourBonus": 0,
      "weaponAimBonus": 0,
      "weaponPowerBonus": 0,
      "magicBonus": 0,
      "prayerBonus": 0,
      "basePrice": 3,
      "isNoteable": 1
    },
    {
      "id": 1333,
      "name": "Santa's hat with beard",
      "description": "It's a santa claus' hat with a beard!",
      "command": "",
      "isFemaleOnly": 0,
      "isMembersOnly": 0,
      "isStackable": 0,
      "isUntradable": 0,
      "isWearable": 1,
      "appearanceID": 398,
      "wearableID": 32,
      "wearSlot": 5,
      "requiredLevel": 1,
      "requiredSkillID": 1,
      "armourBonus": 0,
      "weaponAimBonus": 0,
      "weaponPowerBonus": 0,
      "magicBonus": 0,
      "prayerBonus": 0,
      "basePrice": 160,
      "isNoteable": 1
    },
    {
      "id": 1334,
      "name": "Christmas Apron",
      "description": "An apron for the festivities",
      "command": "",
      "isFemaleOnly": 0,
      "isMembersOnly": 0,
      "isStackable": 0,
      "isUntradable": 0,
      "isWearable": 1,
      "appearanceID": 394,
      "wearableID": 1024,
      "wearSlot": 8,
      "requiredLevel": 1,
      "requiredSkillID": 1,
      "armourBonus": 0,
      "weaponAimBonus": 0,
      "weaponPowerBonus": 0,
      "magicBonus": 0,
      "prayerBonus": 0,
      "basePrice": 2,
      "isNoteable": 1
    },
    {
      "id": 1335,
      "name": "Glass of milk",
      "description": "A glass of tasty milk",
      "command": "drink",
      "isFemaleOnly": 0,
      "isMembersOnly": 0,
      "isStackable": 0,
      "isUntradable": 0,
      "isWearable": 0,
      "appearanceID": 0,
      "wearableID": 0,
      "wearSlot": 0,
      "requiredLevel": 0,
      "requiredSkillID": 0,
      "armourBonus": 0,
      "weaponAimBonus": 0,
      "weaponPowerBonus": 0,
      "magicBonus": 0,
      "prayerBonus": 0,
      "basePrice": 2,
      "isNoteable": 1
    },
    {
      "id": 1336,
      "name": "Cane cookie",
      "description": "A tasty holiday cookie",
      "command": "eat",
      "isFemaleOnly": 0,
      "isMembersOnly": 0,
      "isStackable": 0,
      "isUntradable": 0,
      "isWearable": 0,
      "appearanceID": 0,
      "wearableID": 0,
      "wearSlot": 0,
      "requiredLevel": 0,
      "requiredSkillID": 0,
      "armourBonus": 0,
      "weaponAimBonus": 0,
      "weaponPowerBonus": 0,
      "magicBonus": 0,
      "prayerBonus": 0,
      "basePrice": 2,
      "isNoteable": 1
    },
    {
      "id": 1337,
      "name": "Star cookie",
      "description": "A tasty holiday cookie",
      "command": "eat",
      "isFemaleOnly": 0,
      "isMembersOnly": 0,
      "isStackable": 0,
      "isUntradable": 0,
      "isWearable": 0,
      "appearanceID": 0,
      "wearableID": 0,
      "wearSlot": 0,
      "requiredLevel": 0,
      "requiredSkillID": 0,
      "armourBonus": 0,
      "weaponAimBonus": 0,
      "weaponPowerBonus": 0,
      "magicBonus": 0,
      "prayerBonus": 0,
      "basePrice": 2,
      "isNoteable": 1
    },
    {
      "id": 1338,
      "name": "Tree cookie",
      "description": "A tasty holiday cookie",
      "command": "eat",
      "isFemaleOnly": 0,
      "isMembersOnly": 0,
      "isStackable": 0,
      "isUntradable": 0,
      "isWearable": 0,
      "appearanceID": 0,
      "wearableID": 0,
      "wearSlot": 0,
      "requiredLevel": 0,
      "requiredSkillID": 0,
      "armourBonus": 0,
      "weaponAimBonus": 0,
      "weaponPowerBonus": 0,
      "magicBonus": 0,
      "prayerBonus": 0,
      "basePrice": 2,
      "isNoteable": 1
    },
    {
      "id": 1339,
      "name": "Santa's Gloves",
      "description": "These keep Santa's hands warm",
      "command": "",
      "isFemaleOnly": 0,
      "isMembersOnly": 0,
      "isStackable": 0,
      "isUntradable": 0,
      "isWearable": 1,
      "appearanceID": 400,
      "wearableID": 256,
      "wearSlot": 10,
      "requiredLevel": 1,
      "requiredSkillID": 1,
      "armourBonus": 0,
      "weaponAimBonus": 0,
      "weaponPowerBonus": 0,
      "magicBonus": 0,
      "prayerBonus": 0,
      "basePrice": 6,
      "isNoteable": 1
    },
    {
      "id": 1340,
      "name": "Santa's Mittens",
      "description": "Santa's favorite mittens",
      "command": "",
      "isFemaleOnly": 0,
      "isMembersOnly": 0,
      "isStackable": 0,
      "isUntradable": 0,
      "isWearable": 1,
      "appearanceID": 399,
      "wearableID": 256,
      "wearSlot": 10,
      "requiredLevel": 1,
      "requiredSkillID": 1,
      "armourBonus": 0,
      "weaponAimBonus": 0,
      "weaponPowerBonus": 0,
      "magicBonus": 0,
      "prayerBonus": 0,
      "basePrice": 6,
      "isNoteable": 1
    },
    {
      "id": 1341,
      "name": "Santa's suit",
      "description": "A suit full of joy",
      "command": "",
      "isFemaleOnly": 0,
      "isMembersOnly": 0,
      "isStackable": 0,
      "isUntradable": 0,
      "isWearable": 1,
      "appearanceID": 396,
      "wearableID": 64,
      "wearSlot": 6,
      "requiredLevel": 1,
      "requiredSkillID": 1,
      "armourBonus": 0,
      "weaponAimBonus": 0,
      "weaponPowerBonus": 0,
      "magicBonus": 0,
      "prayerBonus": 0,
      "basePrice": 8,
      "isNoteable": 1
    },
    {
      "id": 1342,
      "name": "Santa's suit",
      "description": "A suit full of joy",
      "command": "",
      "isFemaleOnly": 0,
      "isMembersOnly": 0,
      "isStackable": 0,
      "isUntradable": 0,
      "isWearable": 1,
      "appearanceID": 397,
      "wearableID": 644,
      "wearSlot": 2,
      "requiredLevel": 1,
      "requiredSkillID": 1,
      "armourBonus": 0,
      "weaponAimBonus": 0,
      "weaponPowerBonus": 0,
      "magicBonus": 0,
      "prayerBonus": 0,
      "basePrice": 8,
      "isNoteable": 1
    },
    {
      "id": 1343,
      "name": "Santa's hat",
      "description": "It's a santa claus' hat",
      "command": "",
      "isFemaleOnly": 0,
      "isMembersOnly": 0,
      "isStackable": 0,
      "isUntradable": 0,
      "isWearable": 1,
      "appearanceID": 401,
      "wearableID": 32,
      "wearSlot": 5,
      "requiredLevel": 1,
      "requiredSkillID": 1,
      "armourBonus": 0,
      "weaponAimBonus": 0,
      "weaponPowerBonus": 0,
      "magicBonus": 0,
      "prayerBonus": 0,
      "basePrice": 160,
      "isNoteable": 1
    },
    {
      "id": 1344,
      "name": "Antlers with red-nose",
      "description": "Im Rudolph the reindeer!!!",
      "command": "",
      "isFemaleOnly": 0,
      "isMembersOnly": 0,
      "isStackable": 0,
      "isUntradable": 0,
      "isWearable": 1,
      "appearanceID": 402,
      "wearableID": 32,
      "wearSlot": 5,
      "requiredLevel": 1,
      "requiredSkillID": 1,
      "armourBonus": 0,
      "weaponAimBonus": 0,
      "weaponPowerBonus": 0,
      "magicBonus": 0,
      "prayerBonus": 0,
      "basePrice": 3,
      "isNoteable": 1
    },
    {
      "id": 1345,
      "name": "Beverage glass",
      "description": "A glass left after a tasty drink",
      "command": "",
      "isFemaleOnly": 0,
      "isMembersOnly": 0,
      "isStackable": 0,
      "isUntradable": 0,
      "isWearable": 0,
      "appearanceID": 0,
      "wearableID": 0,
      "wearSlot": 0,
      "requiredLevel": 0,
      "requiredSkillID": 0,
      "armourBonus": 0,
      "weaponAimBonus": 0,
      "weaponPowerBonus": 0,
      "magicBonus": 0,
      "prayerBonus": 0,
      "basePrice": 1,
      "isNoteable": 1
    },
    {
      "id": 1346,
      "name": "dragon 2-handed Sword",
      "description": "A massive sword",
      "command": "",
      "isFemaleOnly": 0,
      "isMembersOnly": 0,
      "isStackable": 0,
      "isUntradable": 0,
      "isWearable": 1,
      "appearanceID": 403,
      "wearableID": 8216,
      "wearSlot": 4,
      "requiredLevel": 60,
      "requiredSkillID": 0,
      "armourBonus": 0,
      "weaponAimBonus": 99,
      "weaponPowerBonus": 99,
      "magicBonus": 0,
      "prayerBonus": 0,
      "basePrice": 5000000,
      "isNoteable": 1
    },
    {
      "id": 1347,
      "name": "King Black Dragon scale",
      "description": "Taken from a monstrous beast",
      "command": "",
      "isFemaleOnly": 0,
      "isMembersOnly": 1,
      "isStackable": 0,
      "isUntradable": 0,
      "isWearable": 0,
      "appearanceID": 0,
      "wearableID": 0,
      "wearSlot": -1,
      "requiredLevel": 0,
      "requiredSkillID": -1,
      "armourBonus": 0,
      "weaponAimBonus": 0,
      "weaponPowerBonus": 0,
      "magicBonus": 0,
      "prayerBonus": 0,
      "basePrice": 2500,
      "isNoteable": 1
    },
    {
      "id": 1348,
      "name": "red apple",
      "description": "Seems tasty!",
      "command": "eat",
      "isFemaleOnly": 0,
      "isMembersOnly": 0,
      "isStackable": 0,
      "isUntradable": 0,
      "isWearable": 0,
      "appearanceID": 0,
      "wearableID": 0,
      "wearSlot": 0,
      "requiredLevel": 0,
      "requiredSkillID": 0,
      "armourBonus": 0,
      "weaponAimBonus": 0,
      "weaponPowerBonus": 0,
      "magicBonus": 0,
      "prayerBonus": 0,
      "basePrice": 1,
      "isNoteable": 1
    },
    {
      "id": 1349,
      "name": "grapefruit",
      "description": "It's very fresh",
      "command": "eat",
      "isFemaleOnly": 0,
      "isMembersOnly": 0,
      "isStackable": 0,
      "isUntradable": 0,
      "isWearable": 0,
      "appearanceID": 0,
      "wearableID": 0,
      "wearSlot": 0,
      "requiredLevel": 0,
      "requiredSkillID": 0,
      "armourBonus": 0,
      "weaponAimBonus": 0,
      "weaponPowerBonus": 0,
      "magicBonus": 0,
      "prayerBonus": 0,
      "basePrice": 2,
      "isNoteable": 1
    },
    {
      "id": 1350,
      "name": "papaya",
      "description": "Seems very tasty!",
      "command": "eat",
      "isFemaleOnly": 0,
      "isMembersOnly": 0,
      "isStackable": 0,
      "isUntradable": 0,
      "isWearable": 0,
      "appearanceID": 0,
      "wearableID": 0,
      "wearSlot": 0,
      "requiredLevel": 0,
      "requiredSkillID": 0,
      "armourBonus": 0,
      "weaponAimBonus": 0,
      "weaponPowerBonus": 0,
      "magicBonus": 0,
      "prayerBonus": 0,
      "basePrice": 2,
      "isNoteable": 1
    },
    {
      "id": 1351,
      "name": "coconut",
      "description": "It can be cut up with a machette",
      "command": "",
      "isFemaleOnly": 0,
      "isMembersOnly": 0,
      "isStackable": 0,
      "isUntradable": 0,
      "isWearable": 0,
      "appearanceID": 0,
      "wearableID": 0,
      "wearSlot": 0,
      "requiredLevel": 0,
      "requiredSkillID": 0,
      "armourBonus": 0,
      "weaponAimBonus": 0,
      "weaponPowerBonus": 0,
      "magicBonus": 0,
      "prayerBonus": 0,
      "basePrice": 2,
      "isNoteable": 1
    },
    {
      "id": 1352,
      "name": "Red Cabbage",
      "description": "Yuck I don't like cabbage",
      "command": "eat",
      "isFemaleOnly": 0,
      "isMembersOnly": 0,
      "isStackable": 0,
      "isUntradable": 0,
      "isWearable": 0,
      "appearanceID": 0,
      "wearableID": 0,
      "wearSlot": 0,
      "requiredLevel": 0,
      "requiredSkillID": 0,
      "armourBonus": 0,
      "weaponAimBonus": 0,
      "weaponPowerBonus": 0,
      "magicBonus": 0,
      "prayerBonus": 0,
      "basePrice": 1,
      "isNoteable": 1
    },
    {
      "id": 1353,
      "name": "Corn",
      "description": "Some fresh picked corn",
      "command": "eat",
      "isFemaleOnly": 0,
      "isMembersOnly": 0,
      "isStackable": 0,
      "isUntradable": 0,
      "isWearable": 0,
      "appearanceID": 0,
      "wearableID": 0,
      "wearSlot": 0,
      "requiredLevel": 0,
      "requiredSkillID": 0,
      "armourBonus": 0,
      "weaponAimBonus": 0,
      "weaponPowerBonus": 0,
      "magicBonus": 0,
      "prayerBonus": 0,
      "basePrice": 2,
      "isNoteable": 1
    },
    {
      "id": 1354,
      "name": "White Pumpkin",
      "description": "Wonder how it tastes",
      "command": "eat",
      "isFemaleOnly": 0,
      "isMembersOnly": 0,
      "isStackable": 0,
      "isUntradable": 0,
      "isWearable": 0,
      "appearanceID": 0,
      "wearableID": 0,
      "wearSlot": 0,
      "requiredLevel": 0,
      "requiredSkillID": 0,
      "armourBonus": 0,
      "weaponAimBonus": 0,
      "weaponPowerBonus": 0,
      "magicBonus": 0,
      "prayerBonus": 0,
      "basePrice": 2,
      "isNoteable": 1
    },
    {
      "id": 1355,
      "name": "Fruit Picker",
      "description": "Useful for picking trees better",
      "command": "",
      "isFemaleOnly": 0,
      "isMembersOnly": 0,
      "isStackable": 0,
      "isUntradable": 0,
      "isWearable": 0,
      "appearanceID": 0,
      "wearableID": 0,
      "wearSlot": 0,
      "requiredLevel": 0,
      "requiredSkillID": 0,
      "armourBonus": 0,
      "weaponAimBonus": 0,
      "weaponPowerBonus": 0,
      "magicBonus": 0,
      "prayerBonus": 0,
      "basePrice": 10,
      "isNoteable": 1
    },
    {
      "id": 1356,
      "name": "Hand Shovel",
      "description": "This will help get yield from bushes and allotments",
      "command": "",
      "isFemaleOnly": 0,
      "isMembersOnly": 0,
      "isStackable": 0,
      "isUntradable": 0,
      "isWearable": 0,
      "appearanceID": 0,
      "wearableID": 0,
      "wearSlot": 0,
      "requiredLevel": 0,
      "requiredSkillID": 0,
      "armourBonus": 0,
      "weaponAimBonus": 0,
      "weaponPowerBonus": 0,
      "magicBonus": 0,
      "prayerBonus": 0,
      "basePrice": 15,
      "isNoteable": 1
    },
    {
      "id": 1357,
      "name": "Herb Clippers",
      "description": "Useful for picking up herbs out there",
      "command": "",
      "isFemaleOnly": 0,
      "isMembersOnly": 0,
      "isStackable": 0,
      "isUntradable": 0,
      "isWearable": 0,
      "appearanceID": 0,
      "wearableID": 0,
      "wearSlot": 0,
      "requiredLevel": 0,
      "requiredSkillID": 0,
      "armourBonus": 0,
      "weaponAimBonus": 0,
      "weaponPowerBonus": 0,
      "magicBonus": 0,
      "prayerBonus": 0,
      "basePrice": 25,
      "isNoteable": 1
    },
    {
      "id": 1358,
      "name": "Watering Can",
      "description": "It's a watering can",
      "command": "",
      "isFemaleOnly": 0,
      "isMembersOnly": 0,
      "isStackable": 0,
      "isUntradable": 0,
      "isWearable": 0,
      "appearanceID": 0,
      "wearableID": 0,
      "wearSlot": 0,
      "requiredLevel": 0,
      "requiredSkillID": 0,
      "armourBonus": 0,
      "weaponAimBonus": 0,
      "weaponPowerBonus": 0,
      "magicBonus": 0,
      "prayerBonus": 0,
      "basePrice": 20,
      "isNoteable": 1
    },
    {
      "id": 1359,
      "name": "grapefruit slices",
      "description": "It's very fresh",
      "command": "eat",
      "isFemaleOnly": 0,
      "isMembersOnly": 0,
      "isStackable": 0,
      "isUntradable": 0,
      "isWearable": 0,
      "appearanceID": 0,
      "wearableID": 0,
      "wearSlot": 0,
      "requiredLevel": 0,
      "requiredSkillID": 0,
      "armourBonus": 0,
      "weaponAimBonus": 0,
      "weaponPowerBonus": 0,
      "magicBonus": 0,
      "prayerBonus": 0,
      "basePrice": 2,
      "isNoteable": 1
    },
    {
      "id": 1360,
      "name": "Diced grapefruit",
      "description": "Fresh chunks of grapefruit",
      "command": "eat",
      "isFemaleOnly": 0,
      "isMembersOnly": 0,
      "isStackable": 0,
      "isUntradable": 0,
      "isWearable": 0,
      "appearanceID": 0,
      "wearableID": 0,
      "wearSlot": 0,
      "requiredLevel": 0,
      "requiredSkillID": 0,
      "armourBonus": 0,
      "weaponAimBonus": 0,
      "weaponPowerBonus": 0,
      "magicBonus": 0,
      "prayerBonus": 0,
      "basePrice": 2,
      "isNoteable": 1
    },
    {
      "id": 1361,
      "name": "Half coconut",
      "description": "Looks like some great coconut",
      "command": "",
      "isFemaleOnly": 0,
      "isMembersOnly": 0,
      "isStackable": 0,
      "isUntradable": 0,
      "isWearable": 0,
      "appearanceID": 0,
      "wearableID": 0,
      "wearSlot": 0,
      "requiredLevel": 0,
      "requiredSkillID": 0,
      "armourBonus": 0,
      "weaponAimBonus": 0,
      "weaponPowerBonus": 0,
      "magicBonus": 0,
      "prayerBonus": 0,
      "basePrice": 2,
      "isNoteable": 1
    },
    {
      "id": 1362,
      "name": "Teddy Body",
      "description": "A fluffy teddy body",
      "command": "",
      "isFemaleOnly": 0,
      "isMembersOnly": 1,
      "isStackable": 0,
      "isUntradable": 0,
      "isWearable": 0,
      "appearanceID": 0,
      "wearableID": 0,
      "wearSlot": 0,
      "requiredLevel": 0,
      "requiredSkillID": 0,
      "armourBonus": 0,
      "weaponAimBonus": 0,
      "weaponPowerBonus": 0,
      "magicBonus": 0,
      "prayerBonus": 0,
      "basePrice": 2,
      "isNoteable": 0
    },
    {
      "id": 1363,
      "name": "Teddy Head",
      "description": "A fluffy teddy head",
      "command": "",
      "isFemaleOnly": 0,
      "isMembersOnly": 1,
      "isStackable": 0,
      "isUntradable": 1,
      "isWearable": 0,
      "appearanceID": 0,
      "wearableID": 0,
      "wearSlot": 0,
      "requiredLevel": 0,
      "requiredSkillID": 0,
      "armourBonus": 0,
      "weaponAimBonus": 0,
      "weaponPowerBonus": 0,
      "magicBonus": 0,
      "prayerBonus": 0,
      "basePrice": 2,
      "isNoteable": 0
    },
    {
      "id": 1364,
      "name": "Teddy",
      "description": "A fluffy teddy",
      "command": "",
      "isFemaleOnly": 0,
      "isMembersOnly": 1,
      "isStackable": 0,
      "isUntradable": 1,
      "isWearable": 0,
      "appearanceID": 0,
      "wearableID": 0,
      "wearSlot": 0,
      "requiredLevel": 0,
      "requiredSkillID": 0,
      "armourBonus": 0,
      "weaponAimBonus": 0,
      "weaponPowerBonus": 0,
      "magicBonus": 0,
      "prayerBonus": 0,
      "basePrice": 2,
      "isNoteable": 0
    },
    {
      "id": 1365,
      "name": "Dragon bar",
      "description": "it's a bar of dragon metal",
      "command": "",
      "isFemaleOnly": 0,
      "isMembersOnly": 1,
      "isStackable": 0,
      "isUntradable": 0,
      "isWearable": 0,
      "appearanceID": 0,
      "wearableID": 0,
      "wearSlot": -1,
      "requiredLevel": 0,
      "requiredSkillID": -1,
      "armourBonus": 0,
      "weaponAimBonus": 0,
      "weaponPowerBonus": 0,
      "magicBonus": 0,
      "prayerBonus": 0,
      "basePrice": 100000,
      "isNoteable": 1
    },
    {
      "id": 1366,
      "name": "Chipped Dragon Scale",
      "description": "a piece of dragon scale",
      "command": "",
      "isFemaleOnly": 0,
      "isMembersOnly": 1,
      "isStackable": 1,
      "isUntradable": 0,
      "isWearable": 0,
      "appearanceID": 0,
      "wearableID": 0,
      "wearSlot": -1,
      "requiredLevel": 0,
      "requiredSkillID": -1,
      "armourBonus": 0,
      "weaponAimBonus": 0,
      "weaponPowerBonus": 0,
      "magicBonus": 0,
      "prayerBonus": 0,
      "basePrice": 500,
      "isNoteable": 0
    },
    {
      "id": 1367,
      "name": "Dragon Metal Chain",
      "description": "a loop of dragon metal",
      "command": "",
      "isFemaleOnly": 0,
      "isMembersOnly": 1,
      "isStackable": 1,
      "isUntradable": 0,
      "isWearable": 0,
      "appearanceID": 0,
      "wearableID": 0,
      "wearSlot": -1,
      "requiredLevel": 0,
      "requiredSkillID": -1,
      "armourBonus": 0,
      "weaponAimBonus": 0,
      "weaponPowerBonus": 0,
      "magicBonus": 0,
      "prayerBonus": 0,
      "basePrice": 1000,
      "isNoteable": 0
    },
    {
      "id": 1368,
      "name": "Dragon Scale Mail",
      "description": "a dragon chain mail reinforced with dragon scales",
      "command": "",
      "isFemaleOnly": 0,
      "isMembersOnly": 0,
      "isStackable": 0,
      "isUntradable": 0,
      "isWearable": 1,
      "appearanceID": 404,
      "wearableID": 64,
      "wearSlot": 6,
      "requiredLevel": 60,
      "requiredSkillID": 1,
      "armourBonus": 95,
      "weaponAimBonus": 10,
      "weaponPowerBonus": 6,
      "magicBonus": 0,
      "prayerBonus": 0,
      "basePrice": 1500000,
      "isNoteable": 1
    },
    {
      "id": 1369,
      "name": "Dwarf Smithy Note",
      "description": "Details how to make the Dragon Scale Mail",
      "command": "read",
      "isFemaleOnly": 0,
      "isMembersOnly": 1,
      "isStackable": 0,
      "isUntradable": 1,
      "isWearable": 0,
      "appearanceID": 0,
      "wearableID": 0,
      "wearSlot": -1,
      "requiredLevel": 0,
      "requiredSkillID": -1,
      "armourBonus": 0,
      "weaponAimBonus": 0,
      "weaponPowerBonus": 0,
      "magicBonus": 0,
      "prayerBonus": 0,
      "basePrice": 1,
      "isNoteable": 0
    },
    {
      "id": 1370,
      "name": "Leather chaps",
      "description": "They seem like decent protection",
      "command": "",
      "isFemaleOnly": 0,
      "isMembersOnly": 0,
      "isStackable": 0,
      "isUntradable": 0,
      "isWearable": 1,
      "appearanceID": 426,
      "wearableID": 644,
      "wearSlot": 2,
      "requiredLevel": 1,
      "requiredSkillID": 1,
      "armourBonus": 4,
      "weaponAimBonus": 0,
      "weaponPowerBonus": 0,
      "magicBonus": 0,
      "prayerBonus": 0,
      "basePrice": 14,
      "isNoteable": 1
    },
    {
      "id": 1371,
      "name": "Leather top",
      "description": "A stylish leather top",
      "command": "",
      "isFemaleOnly": 1,
      "isMembersOnly": 0,
      "isStackable": 0,
      "isUntradable": 0,
      "isWearable": 1,
      "appearanceID": 427,
      "wearableID": 322,
      "wearSlot": 1,
      "requiredLevel": 1,
      "requiredSkillID": 1,
      "armourBonus": 10,
      "weaponAimBonus": 0,
      "weaponPowerBonus": 0,
      "magicBonus": 0,
      "prayerBonus": 0,
      "basePrice": 21,
      "isNoteable": 1
    },
    {
      "id": 1372,
      "name": "Leather skirt",
      "description": "A ladies skirt made of leather",
      "command": "",
      "isFemaleOnly": 0,
      "isMembersOnly": 0,
      "isStackable": 0,
      "isUntradable": 0,
      "isWearable": 1,
      "appearanceID": 428,
      "wearableID": 128,
      "wearSlot": 7,
      "requiredLevel": 1,
      "requiredSkillID": 1,
      "armourBonus": 3,
      "weaponAimBonus": 0,
      "weaponPowerBonus": 0,
      "magicBonus": 0,
      "prayerBonus": 0,
      "basePrice": 14,
      "isNoteable": 1
    },
    {
      "id": 1373,
      "name": "Cooking cape",
      "description": "The cape worn by the world's best chefs",
      "command": "",
      "isFemaleOnly": 0,
      "isMembersOnly": 0,
      "isStackable": 0,
      "isUntradable": 1,
      "isWearable": 1,
      "appearanceID": 311,
      "wearableID": 2048,
      "wearSlot": 11,
      "requiredLevel": 99,
      "requiredSkillID": 7,
      "armourBonus": 6,
      "weaponAimBonus": 0,
      "weaponPowerBonus": 0,
      "magicBonus": 0,
      "prayerBonus": 0,
      "basePrice": 99000,
      "isNoteable": 0
    },
    {
      "id": 1374,
      "name": "Attack cape",
      "description": "The cape worn by masters of attack",
      "command": "",
      "isFemaleOnly": 0,
      "isMembersOnly": 0,
      "isStackable": 0,
      "isUntradable": 1,
      "isWearable": 1,
      "appearanceID": 315,
      "wearableID": 2048,
      "wearSlot": 11,
      "requiredLevel": 99,
      "requiredSkillID": 0,
      "armourBonus": 6,
      "weaponAimBonus": 0,
      "weaponPowerBonus": 0,
      "magicBonus": 0,
      "prayerBonus": 0,
      "basePrice": 99000,
      "isNoteable": 0
    },
    {
      "id": 1375,
      "name": "Thieving cape",
      "description": "The cape worn by masters of thieving",
      "command": "",
      "isFemaleOnly": 0,
      "isMembersOnly": 0,
      "isStackable": 0,
      "isUntradable": 1,
      "isWearable": 1,
      "appearanceID": 429,
      "wearableID": 2048,
      "wearSlot": 11,
      "requiredLevel": 99,
      "requiredSkillID": 17,
      "armourBonus": 6,
      "weaponAimBonus": 0,
      "weaponPowerBonus": 0,
      "magicBonus": 0,
      "prayerBonus": 0,
      "basePrice": 99000,
      "isNoteable": 0
    },
    {
      "id": 1376,
      "name": "Fletching cape",
      "description": "The cape worn by masters of fletching",
      "command": "",
      "isFemaleOnly": 0,
      "isMembersOnly": 0,
      "isStackable": 0,
      "isUntradable": 1,
      "isWearable": 1,
      "appearanceID": 430,
      "wearableID": 2048,
      "wearSlot": 11,
      "requiredLevel": 99,
      "requiredSkillID": 9,
      "armourBonus": 6,
      "weaponAimBonus": 0,
      "weaponPowerBonus": 0,
      "magicBonus": 0,
      "prayerBonus": 0,
      "basePrice": 99000,
      "isNoteable": 0
    },
    {
      "id": 1377,
      "name": "Mining cape",
      "description": "The cape worn by masters of mining",
      "command": "",
      "isFemaleOnly": 0,
      "isMembersOnly": 0,
      "isStackable": 0,
      "isUntradable": 1,
      "isWearable": 1,
      "appearanceID": 431,
      "wearableID": 2048,
      "wearSlot": 11,
      "requiredLevel": 99,
      "requiredSkillID": 14,
      "armourBonus": 6,
      "weaponAimBonus": 0,
      "weaponPowerBonus": 0,
      "magicBonus": 0,
      "prayerBonus": 0,
      "basePrice": 99000,
      "isNoteable": 0
    },
    {
      "id": 1378,
      "name": "Pestilence Mask",
      "description": "You wouldn't want to be seen in this! Stay the cabbage home!",
      "command": "",
      "isFemaleOnly": 0,
      "isMembersOnly": 0,
      "isStackable": 0,
      "isUntradable": 0,
      "isWearable": 1,
      "appearanceID": 432,
      "wearableID": 32,
      "wearSlot": 5,
      "requiredLevel": 1,
      "requiredSkillID": 1,
      "armourBonus": 0,
      "weaponAimBonus": 0,
      "weaponPowerBonus": 0,
      "magicBonus": 0,
      "prayerBonus": 0,
      "basePrice": 0,
      "isNoteable": 1
    },
    {
      "id": 1379,
      "name": "Rubber Chicken Cap",
      "description": "Wow. That was some very in-depth research on the chicken or the egg question.",
      "command": "",
      "isFemaleOnly": 0,
      "isMembersOnly": 0,
      "isStackable": 0,
      "isUntradable": 0,
      "isWearable": 1,
      "appearanceID": 433,
      "wearableID": 32,
      "wearSlot": 5,
      "requiredLevel": 1,
      "requiredSkillID": 1,
      "armourBonus": 0,
      "weaponAimBonus": 0,
      "weaponPowerBonus": 0,
      "magicBonus": 0,
      "prayerBonus": 0,
      "basePrice": 0,
      "isNoteable": 1
    },
    {
      "id": 1380,
      "name": "Fishing cape",
      "description": "The cape worn by the best fishermen",
      "command": "",
      "isFemaleOnly": 0,
      "isMembersOnly": 0,
      "isStackable": 0,
      "isUntradable": 1,
      "isWearable": 1,
      "appearanceID": 310,
      "wearableID": 2048,
      "wearSlot": 11,
      "requiredLevel": 99,
      "requiredSkillID": 10,
      "armourBonus": 6,
      "weaponAimBonus": 0,
      "weaponPowerBonus": 0,
      "magicBonus": 0,
      "prayerBonus": 0,
      "basePrice": 99000,
      "isNoteable": 0
    },
    {
      "id": 1381,
      "name": "Strength cape",
      "description": "The cape worn by only the strongest people",
      "command": "",
      "isFemaleOnly": 0,
      "isMembersOnly": 0,
      "isStackable": 0,
      "isUntradable": 1,
      "isWearable": 1,
      "appearanceID": 385,
      "wearableID": 2048,
      "wearSlot": 11,
      "requiredLevel": 99,
      "requiredSkillID": 2,
      "armourBonus": 6,
      "weaponAimBonus": 0,
      "weaponPowerBonus": 0,
      "magicBonus": 0,
      "prayerBonus": 0,
      "basePrice": 99000,
      "isNoteable": 0
    },
    {
      "id": 1382,
      "name": "Magic cape",
      "description": "The cape worn by the most powerful mages",
      "command": "",
      "isFemaleOnly": 0,
      "isMembersOnly": 0,
      "isStackable": 0,
      "isUntradable": 1,
      "isWearable": 1,
      "appearanceID": 440,
      "wearableID": 2048,
      "wearSlot": 11,
      "requiredLevel": 99,
      "requiredSkillID": 6,
      "armourBonus": 6,
      "weaponAimBonus": 0,
      "weaponPowerBonus": 0,
      "magicBonus": 0,
      "prayerBonus": 0,
      "basePrice": 99000,
      "isNoteable": 0
    },
    {
      "id": 1383,
      "name": "Smithing cape",
      "description": "The cape worn by master smiths",
      "command": "",
      "isFemaleOnly": 0,
      "isMembersOnly": 0,
      "isStackable": 0,
      "isUntradable": 1,
      "isWearable": 1,
      "appearanceID": 384,
      "wearableID": 2048,
      "wearSlot": 11,
      "requiredLevel": 99,
      "requiredSkillID": 13,
      "armourBonus": 6,
      "weaponAimBonus": 0,
      "weaponPowerBonus": 0,
      "magicBonus": 0,
      "prayerBonus": 0,
      "basePrice": 99000,
      "isNoteable": 0
    },
    {
      "id": 1384,
      "name": "Crafting cape",
      "description": "The cape worn by master craftworkers",
      "command": "Teleport",
      "isFemaleOnly": 0,
      "isMembersOnly": 0,
      "isStackable": 0,
      "isUntradable": 1,
      "isWearable": 1,
      "appearanceID": 441,
      "wearableID": 2048,
      "wearSlot": 11,
      "requiredLevel": 99,
      "requiredSkillID": 12,
      "armourBonus": 6,
      "weaponAimBonus": 0,
      "weaponPowerBonus": 0,
      "magicBonus": 0,
      "prayerBonus": 0,
      "basePrice": 99000,
      "isNoteable": 0
    },
    {
      "id": 1385,
      "name": "Uncharged talisman",
      "description": "This needs charging to work properly...",
      "command": "",
      "isFemaleOnly": 0,
      "isMembersOnly": 0,
      "isStackable": 0,
      "isUntradable": 0,
      "isWearable": 0,
      "appearanceID": 0,
      "wearableID": 0,
      "wearSlot": 0,
      "requiredLevel": 0,
      "requiredSkillID": 0,
      "armourBonus": 0,
      "weaponAimBonus": 0,
      "weaponPowerBonus": 0,
      "magicBonus": 0,
      "prayerBonus": 0,
      "basePrice": 0,
      "isNoteable": 1
    },
    {
      "id": 1386,
      "name": "Cursed air talisman",
      "description": "A mysterious power emanates from this talisman...",
      "command": "Locate",
      "isFemaleOnly": 0,
      "isMembersOnly": 0,
      "isStackable": 0,
      "isUntradable": 0,
      "isWearable": 0,
      "appearanceID": 0,
      "wearableID": 0,
      "wearSlot": 0,
      "requiredLevel": 0,
      "requiredSkillID": 0,
      "armourBonus": 0,
      "weaponAimBonus": 0,
      "weaponPowerBonus": 0,
      "magicBonus": 0,
      "prayerBonus": 0,
      "basePrice": 0,
      "isNoteable": 0
    },
    {
      "id": 1387,
      "name": "Cursed mind talisman",
      "description": "A mysterious power emanates from this talisman...",
      "command": "Locate",
      "isFemaleOnly": 0,
      "isMembersOnly": 0,
      "isStackable": 0,
      "isUntradable": 0,
      "isWearable": 0,
      "appearanceID": 0,
      "wearableID": 0,
      "wearSlot": 0,
      "requiredLevel": 0,
      "requiredSkillID": 0,
      "armourBonus": 0,
      "weaponAimBonus": 0,
      "weaponPowerBonus": 0,
      "magicBonus": 0,
      "prayerBonus": 0,
      "basePrice": 0,
      "isNoteable": 0
    },
    {
      "id": 1388,
      "name": "Cursed water talisman",
      "description": "A mysterious power emanates from this talisman...",
      "command": "Locate",
      "isFemaleOnly": 0,
      "isMembersOnly": 0,
      "isStackable": 0,
      "isUntradable": 0,
      "isWearable": 0,
      "appearanceID": 0,
      "wearableID": 0,
      "wearSlot": 0,
      "requiredLevel": 0,
      "requiredSkillID": 0,
      "armourBonus": 0,
      "weaponAimBonus": 0,
      "weaponPowerBonus": 0,
      "magicBonus": 0,
      "prayerBonus": 0,
      "basePrice": 0,
      "isNoteable": 0
    },
    {
      "id": 1389,
      "name": "Cursed earth talisman",
      "description": "A mysterious power emanates from this talisman...",
      "command": "Locate",
      "isFemaleOnly": 0,
      "isMembersOnly": 0,
      "isStackable": 0,
      "isUntradable": 0,
      "isWearable": 0,
      "appearanceID": 0,
      "wearableID": 0,
      "wearSlot": 0,
      "requiredLevel": 0,
      "requiredSkillID": 0,
      "armourBonus": 0,
      "weaponAimBonus": 0,
      "weaponPowerBonus": 0,
      "magicBonus": 0,
      "prayerBonus": 0,
      "basePrice": 0,
      "isNoteable": 0
    },
    {
      "id": 1390,
      "name": "Cursed fire talisman",
      "description": "A mysterious power emanates from this talisman...",
      "command": "Locate",
      "isFemaleOnly": 0,
      "isMembersOnly": 0,
      "isStackable": 0,
      "isUntradable": 0,
      "isWearable": 0,
      "appearanceID": 0,
      "wearableID": 0,
      "wearSlot": 0,
      "requiredLevel": 0,
      "requiredSkillID": 0,
      "armourBonus": 0,
      "weaponAimBonus": 0,
      "weaponPowerBonus": 0,
      "magicBonus": 0,
      "prayerBonus": 0,
      "basePrice": 0,
      "isNoteable": 0
    },
    {
      "id": 1391,
      "name": "Cursed body talisman",
      "description": "A mysterious power emanates from this talisman...",
      "command": "Locate",
      "isFemaleOnly": 0,
      "isMembersOnly": 0,
      "isStackable": 0,
      "isUntradable": 0,
      "isWearable": 0,
      "appearanceID": 0,
      "wearableID": 0,
      "wearSlot": 0,
      "requiredLevel": 0,
      "requiredSkillID": 0,
      "armourBonus": 0,
      "weaponAimBonus": 0,
      "weaponPowerBonus": 0,
      "magicBonus": 0,
      "prayerBonus": 0,
      "basePrice": 0,
      "isNoteable": 0
    },
    {
      "id": 1392,
      "name": "Cursed cosmic talisman",
      "description": "A mysterious power emanates from this talisman...",
      "command": "Locate",
      "isFemaleOnly": 0,
      "isMembersOnly": 0,
      "isStackable": 0,
      "isUntradable": 0,
      "isWearable": 0,
      "appearanceID": 0,
      "wearableID": 0,
      "wearSlot": 0,
      "requiredLevel": 0,
      "requiredSkillID": 0,
      "armourBonus": 0,
      "weaponAimBonus": 0,
      "weaponPowerBonus": 0,
      "magicBonus": 0,
      "prayerBonus": 0,
      "basePrice": 0,
      "isNoteable": 0
    },
    {
      "id": 1393,
      "name": "Cursed chaos talisman",
      "description": "A mysterious power emanates from this talisman...",
      "command": "Locate",
      "isFemaleOnly": 0,
      "isMembersOnly": 0,
      "isStackable": 0,
      "isUntradable": 0,
      "isWearable": 0,
      "appearanceID": 0,
      "wearableID": 0,
      "wearSlot": 0,
      "requiredLevel": 0,
      "requiredSkillID": 0,
      "armourBonus": 0,
      "weaponAimBonus": 0,
      "weaponPowerBonus": 0,
      "magicBonus": 0,
      "prayerBonus": 0,
      "basePrice": 0,
      "isNoteable": 0
    },
    {
      "id": 1394,
      "name": "Cursed nature talisman",
      "description": "A mysterious power emanates from this talisman...",
      "command": "Locate",
      "isFemaleOnly": 0,
      "isMembersOnly": 0,
      "isStackable": 0,
      "isUntradable": 0,
      "isWearable": 0,
      "appearanceID": 0,
      "wearableID": 0,
      "wearSlot": 0,
      "requiredLevel": 0,
      "requiredSkillID": 0,
      "armourBonus": 0,
      "weaponAimBonus": 0,
      "weaponPowerBonus": 0,
      "magicBonus": 0,
      "prayerBonus": 0,
      "basePrice": 0,
      "isNoteable": 0
    },
    {
      "id": 1395,
      "name": "Cursed law talisman",
      "description": "A mysterious power emanates from this talisman...",
      "command": "Locate",
      "isFemaleOnly": 0,
      "isMembersOnly": 0,
      "isStackable": 0,
      "isUntradable": 0,
      "isWearable": 0,
      "appearanceID": 0,
      "wearableID": 0,
      "wearSlot": 0,
      "requiredLevel": 0,
      "requiredSkillID": 0,
      "armourBonus": 0,
      "weaponAimBonus": 0,
      "weaponPowerBonus": 0,
      "magicBonus": 0,
      "prayerBonus": 0,
      "basePrice": 0,
      "isNoteable": 0
    },
    {
      "id": 1396,
      "name": "Cursed death talisman",
      "description": "A mysterious power emanates from this talisman...",
      "command": "Locate",
      "isFemaleOnly": 0,
      "isMembersOnly": 0,
      "isStackable": 0,
      "isUntradable": 0,
      "isWearable": 0,
      "appearanceID": 0,
      "wearableID": 0,
      "wearSlot": 0,
      "requiredLevel": 0,
      "requiredSkillID": 0,
      "armourBonus": 0,
      "weaponAimBonus": 0,
      "weaponPowerBonus": 0,
      "magicBonus": 0,
      "prayerBonus": 0,
      "basePrice": 0,
      "isNoteable": 0
    },
    {
      "id": 1397,
      "name": "Cursed blood talisman",
      "description": "A mysterious power emanates from this talisman...",
      "command": "Locate",
      "isFemaleOnly": 0,
      "isMembersOnly": 0,
      "isStackable": 0,
      "isUntradable": 0,
      "isWearable": 0,
      "appearanceID": 0,
      "wearableID": 0,
      "wearSlot": 0,
      "requiredLevel": 0,
      "requiredSkillID": 0,
      "armourBonus": 0,
      "weaponAimBonus": 0,
      "weaponPowerBonus": 0,
      "magicBonus": 0,
      "prayerBonus": 0,
      "basePrice": 0,
      "isNoteable": 0
    },
    {
      "id": 1398,
      "name": "Enfeebled air talisman",
      "description": "A mysterious power emanates from this talisman...",
      "command": "Locate",
      "isFemaleOnly": 0,
      "isMembersOnly": 0,
      "isStackable": 0,
      "isUntradable": 0,
      "isWearable": 0,
      "appearanceID": 0,
      "wearableID": 0,
      "wearSlot": 0,
      "requiredLevel": 0,
      "requiredSkillID": 0,
      "armourBonus": 0,
      "weaponAimBonus": 0,
      "weaponPowerBonus": 0,
      "magicBonus": 0,
      "prayerBonus": 0,
      "basePrice": 0,
      "isNoteable": 0
    },
    {
      "id": 1399,
      "name": "Enfeebled mind talisman",
      "description": "A mysterious power emanates from this talisman...",
      "command": "Locate",
      "isFemaleOnly": 0,
      "isMembersOnly": 0,
      "isStackable": 0,
      "isUntradable": 0,
      "isWearable": 0,
      "appearanceID": 0,
      "wearableID": 0,
      "wearSlot": 0,
      "requiredLevel": 0,
      "requiredSkillID": 0,
      "armourBonus": 0,
      "weaponAimBonus": 0,
      "weaponPowerBonus": 0,
      "magicBonus": 0,
      "prayerBonus": 0,
      "basePrice": 0,
      "isNoteable": 0
    },
    {
      "id": 1400,
      "name": "Enfeebled water talisman",
      "description": "A mysterious power emanates from this talisman...",
      "command": "Locate",
      "isFemaleOnly": 0,
      "isMembersOnly": 0,
      "isStackable": 0,
      "isUntradable": 0,
      "isWearable": 0,
      "appearanceID": 0,
      "wearableID": 0,
      "wearSlot": 0,
      "requiredLevel": 0,
      "requiredSkillID": 0,
      "armourBonus": 0,
      "weaponAimBonus": 0,
      "weaponPowerBonus": 0,
      "magicBonus": 0,
      "prayerBonus": 0,
      "basePrice": 0,
      "isNoteable": 0
    },
    {
      "id": 1401,
      "name": "Enfeebled earth talisman",
      "description": "A mysterious power emanates from this talisman...",
      "command": "Locate",
      "isFemaleOnly": 0,
      "isMembersOnly": 0,
      "isStackable": 0,
      "isUntradable": 0,
      "isWearable": 0,
      "appearanceID": 0,
      "wearableID": 0,
      "wearSlot": 0,
      "requiredLevel": 0,
      "requiredSkillID": 0,
      "armourBonus": 0,
      "weaponAimBonus": 0,
      "weaponPowerBonus": 0,
      "magicBonus": 0,
      "prayerBonus": 0,
      "basePrice": 0,
      "isNoteable": 0
    },
    {
      "id": 1402,
      "name": "Enfeebled fire talisman",
      "description": "A mysterious power emanates from this talisman...",
      "command": "Locate",
      "isFemaleOnly": 0,
      "isMembersOnly": 0,
      "isStackable": 0,
      "isUntradable": 0,
      "isWearable": 0,
      "appearanceID": 0,
      "wearableID": 0,
      "wearSlot": 0,
      "requiredLevel": 0,
      "requiredSkillID": 0,
      "armourBonus": 0,
      "weaponAimBonus": 0,
      "weaponPowerBonus": 0,
      "magicBonus": 0,
      "prayerBonus": 0,
      "basePrice": 0,
      "isNoteable": 0
    },
    {
      "id": 1403,
      "name": "Enfeebled body talisman",
      "description": "A mysterious power emanates from this talisman...",
      "command": "Locate",
      "isFemaleOnly": 0,
      "isMembersOnly": 0,
      "isStackable": 0,
      "isUntradable": 0,
      "isWearable": 0,
      "appearanceID": 0,
      "wearableID": 0,
      "wearSlot": 0,
      "requiredLevel": 0,
      "requiredSkillID": 0,
      "armourBonus": 0,
      "weaponAimBonus": 0,
      "weaponPowerBonus": 0,
      "magicBonus": 0,
      "prayerBonus": 0,
      "basePrice": 0,
      "isNoteable": 0
    },
    {
      "id": 1404,
      "name": "Enfeebled cosmic talisman",
      "description": "A mysterious power emanates from this talisman...",
      "command": "Locate",
      "isFemaleOnly": 0,
      "isMembersOnly": 0,
      "isStackable": 0,
      "isUntradable": 0,
      "isWearable": 0,
      "appearanceID": 0,
      "wearableID": 0,
      "wearSlot": 0,
      "requiredLevel": 0,
      "requiredSkillID": 0,
      "armourBonus": 0,
      "weaponAimBonus": 0,
      "weaponPowerBonus": 0,
      "magicBonus": 0,
      "prayerBonus": 0,
      "basePrice": 0,
      "isNoteable": 0
    },
    {
      "id": 1405,
      "name": "Enfeebled chaos talisman",
      "description": "A mysterious power emanates from this talisman...",
      "command": "Locate",
      "isFemaleOnly": 0,
      "isMembersOnly": 0,
      "isStackable": 0,
      "isUntradable": 0,
      "isWearable": 0,
      "appearanceID": 0,
      "wearableID": 0,
      "wearSlot": 0,
      "requiredLevel": 0,
      "requiredSkillID": 0,
      "armourBonus": 0,
      "weaponAimBonus": 0,
      "weaponPowerBonus": 0,
      "magicBonus": 0,
      "prayerBonus": 0,
      "basePrice": 0,
      "isNoteable": 0
    },
    {
      "id": 1406,
      "name": "Enfeebled nature talisman",
      "description": "A mysterious power emanates from this talisman...",
      "command": "Locate",
      "isFemaleOnly": 0,
      "isMembersOnly": 0,
      "isStackable": 0,
      "isUntradable": 0,
      "isWearable": 0,
      "appearanceID": 0,
      "wearableID": 0,
      "wearSlot": 0,
      "requiredLevel": 0,
      "requiredSkillID": 0,
      "armourBonus": 0,
      "weaponAimBonus": 0,
      "weaponPowerBonus": 0,
      "magicBonus": 0,
      "prayerBonus": 0,
      "basePrice": 0,
      "isNoteable": 0
    },
    {
      "id": 1407,
      "name": "Enfeebled law talisman",
      "description": "A mysterious power emanates from this talisman...",
      "command": "Locate",
      "isFemaleOnly": 0,
      "isMembersOnly": 0,
      "isStackable": 0,
      "isUntradable": 0,
      "isWearable": 0,
      "appearanceID": 0,
      "wearableID": 0,
      "wearSlot": 0,
      "requiredLevel": 0,
      "requiredSkillID": 0,
      "armourBonus": 0,
      "weaponAimBonus": 0,
      "weaponPowerBonus": 0,
      "magicBonus": 0,
      "prayerBonus": 0,
      "basePrice": 0,
      "isNoteable": 0
    },
    {
      "id": 1408,
      "name": "Enfeebled death talisman",
      "description": "A mysterious power emanates from this talisman...",
      "command": "Locate",
      "isFemaleOnly": 0,
      "isMembersOnly": 0,
      "isStackable": 0,
      "isUntradable": 0,
      "isWearable": 0,
      "appearanceID": 0,
      "wearableID": 0,
      "wearSlot": 0,
      "requiredLevel": 0,
      "requiredSkillID": 0,
      "armourBonus": 0,
      "weaponAimBonus": 0,
      "weaponPowerBonus": 0,
      "magicBonus": 0,
      "prayerBonus": 0,
      "basePrice": 0,
      "isNoteable": 0
    },
    {
      "id": 1409,
      "name": "Enfeebled blood talisman",
      "description": "A mysterious power emanates from this talisman...",
      "command": "Locate",
      "isFemaleOnly": 0,
      "isMembersOnly": 0,
      "isStackable": 0,
      "isUntradable": 0,
      "isWearable": 0,
      "appearanceID": 0,
      "wearableID": 0,
      "wearSlot": 0,
      "requiredLevel": 0,
      "requiredSkillID": 0,
      "armourBonus": 0,
      "weaponAimBonus": 0,
      "weaponPowerBonus": 0,
      "magicBonus": 0,
      "prayerBonus": 0,
      "basePrice": 0,
      "isNoteable": 0
    },
    {
      "id": 1410,
      "name": "Fish oil",
      "description": "Good for my heart",
      "command": "Eat",
      "isFemaleOnly": 0,
      "isMembersOnly": 0,
      "isStackable": 1,
      "isUntradable": 0,
      "isWearable": 0,
      "appearanceID": 0,
      "wearableID": 0,
      "wearSlot": -1,
      "requiredLevel": 0,
      "requiredSkillID": 0,
      "armourBonus": 0,
      "weaponAimBonus": 0,
      "weaponPowerBonus": 0,
      "magicBonus": 0,
      "prayerBonus": 0,
      "basePrice": 0,
      "isNoteable": 0
    },
    {
      "id": 1411,
      "name": "Runecraft Potion",
      "description": "3 doses of runecraft potion",
      "command": "Drink",
      "isFemaleOnly": 0,
      "isMembersOnly": 1,
      "isStackable": 0,
      "isUntradable": 0,
      "isWearable": 0,
      "appearanceID": 0,
      "wearableID": 0,
      "wearSlot": -1,
      "requiredLevel": 0,
      "requiredSkillID": -1,
      "armourBonus": 0,
      "weaponAimBonus": 0,
      "weaponPowerBonus": 0,
      "magicBonus": 0,
      "prayerBonus": 0,
      "basePrice": 200,
      "isNoteable": 1
    },
    {
      "id": 1412,
      "name": "Runecraft Potion",
      "description": "2 doses of runecraft potion",
      "command": "Drink",
      "isFemaleOnly": 0,
      "isMembersOnly": 1,
      "isStackable": 0,
      "isUntradable": 0,
      "isWearable": 0,
      "appearanceID": 0,
      "wearableID": 0,
      "wearSlot": -1,
      "requiredLevel": 0,
      "requiredSkillID": -1,
      "armourBonus": 0,
      "weaponAimBonus": 0,
      "weaponPowerBonus": 0,
      "magicBonus": 0,
      "prayerBonus": 0,
      "basePrice": 150,
      "isNoteable": 1
    },
    {
      "id": 1413,
      "name": "Runecraft Potion",
      "description": "1 dose of runecraft potion",
      "command": "Drink",
      "isFemaleOnly": 0,
      "isMembersOnly": 1,
      "isStackable": 0,
      "isUntradable": 0,
      "isWearable": 0,
      "appearanceID": 0,
      "wearableID": 0,
      "wearSlot": -1,
      "requiredLevel": 0,
      "requiredSkillID": -1,
      "armourBonus": 0,
      "weaponAimBonus": 0,
      "weaponPowerBonus": 0,
      "magicBonus": 0,
      "prayerBonus": 0,
      "basePrice": 100,
      "isNoteable": 1
    },
    {
      "id": 1414,
      "name": "Super Runecraft Potion",
      "description": "3 doses of super runecraft potion",
      "command": "Drink",
      "isFemaleOnly": 0,
      "isMembersOnly": 1,
      "isStackable": 0,
      "isUntradable": 0,
      "isWearable": 0,
      "appearanceID": 0,
      "wearableID": 0,
      "wearSlot": -1,
      "requiredLevel": 0,
      "requiredSkillID": -1,
      "armourBonus": 0,
      "weaponAimBonus": 0,
      "weaponPowerBonus": 0,
      "magicBonus": 0,
      "prayerBonus": 0,
      "basePrice": 400,
      "isNoteable": 1
    },
    {
      "id": 1415,
      "name": "Super Runecraft Potion",
      "description": "2 doses of super runecraft potion",
      "command": "Drink",
      "isFemaleOnly": 0,
      "isMembersOnly": 1,
      "isStackable": 0,
      "isUntradable": 0,
      "isWearable": 0,
      "appearanceID": 0,
      "wearableID": 0,
      "wearSlot": -1,
      "requiredLevel": 0,
      "requiredSkillID": -1,
      "armourBonus": 0,
      "weaponAimBonus": 0,
      "weaponPowerBonus": 0,
      "magicBonus": 0,
      "prayerBonus": 0,
      "basePrice": 300,
      "isNoteable": 1
    },
    {
      "id": 1416,
      "name": "Super Runecraft Potion",
      "description": "1 dose of super runecraft potion",
      "command": "Drink",
      "isFemaleOnly": 0,
      "isMembersOnly": 1,
      "isStackable": 0,
      "isUntradable": 0,
      "isWearable": 0,
      "appearanceID": 0,
      "wearableID": 0,
      "wearSlot": -1,
      "requiredLevel": 0,
      "requiredSkillID": -1,
      "armourBonus": 0,
      "weaponAimBonus": 0,
      "weaponPowerBonus": 0,
      "magicBonus": 0,
      "prayerBonus": 0,
      "basePrice": 200,
      "isNoteable": 1
    }
  ]
}
